{
  "agentes": [
    {
      "name": "Smith",
      "age": 33
    },
    {
      "name": "Jones",
      "age": 23
    },
    {
      "name": "Brown",
      "age": 46
    }
  ],
  "usuarios": [
    {
      "email": "admin@example.com",
      "password": "1234"
    },
    {
      "email": "usuario1@example.com",
      "password": "1234"
    }
  ]
}